{
	"global": {
		"url":"http://app.mayogarcia.com/",
		"fontSize":"16dp",
		"fontSizeSmall":"13dp",
		"fontFamily":"Avenir-Roman",
		"fontFamilyButton":"Helvetica Neue Light",
		"fontFamilyTitle":"Helvetica Medium",
		"fontFamily":"Georgia regular",
		"headerHeight":"45dp"
	}, 
	"env:development": {}, 
	"env:test": {}, 
	"env:production": {}, 
	"os:android": {},
	"os:blackberry": {},
	"os:ios": {},
	"os:mobileweb": {},
	"dependencies": {}
}